# Title: CHEF-KOCH's Windows 10 HOSTS Filter List
# Description: Blocks all Windows 10 (Build 1607 - 1903) traffic (after a clean install). 
# License: https://github.com/CHEF-KOCH/CKs-FilterList/blob/master/LICENSE
# By downloading or viewing, or using this list, you are accepting these terms and the license.
# Homepage: https://github.com/CHEF-KOCH/CKs-FilterList
# Expires: 14d
# Version: 0.0.0.9
# Last updated: 2019-05-25
# Please report any unblocked content or problems by email or via GitHub issue ticket.
# Email: CHEF-KOCH@protonmail.com
# Copyright (C) 2018 - 2019 by CHEF-KOCH
#
# 
# Activation
0.0.0.0 activation-v2.sls.microsoft.com
0.0.0.0 activation.sls.microsoft.com
# IPv6
0.0.0.0 6to4.ipv6.microsoft.com
0.0.0.0 pnrpv2.ipv6.microsoft.com
0.0.0.0 pnrpv21.ipv6.microsoft.com
0.0.0.0 teredo.ipv6.microsoft.com
0.0.0.0 win10.ipv6.microsoft.com
0.0.0.0 win1710.ipv6.microsoft.com
0.0.0.0 win8.ipv6.microsoft.com
# Apps, XBox, Login etc.
0.0.0.0 a-0001.a-msedge.net
0.0.0.0 a-0001.dc-msedge.net
0.0.0.0 a-0002.a-msedge.net
0.0.0.0 a-0003.a-msedge.net
0.0.0.0 a-0003.dc-msedge.net
0.0.0.0 a-0004.a-msedge.net
0.0.0.0 a-0005.a-msedge.net
0.0.0.0 a-0006.a-msedge.net
0.0.0.0 a-0007.a-msedge.net
0.0.0.0 a-0008.a-msedge.net
0.0.0.0 a-0009.a-msedge.net
0.0.0.0 a-0010.a-msedge.net
0.0.0.0 a-0011.a-msedge.net
0.0.0.0 a-0012.a-msedge.net
0.0.0.0 a-msedge.net
0.0.0.0 a.ns.facebook.com
0.0.0.0 acdn.adnxs.com
0.0.0.0 admeld.com
0.0.0.0 ads.ak.facebook.com.edgesuite.net
0.0.0.0 ads.eu.msn.com
0.0.0.0 ads.exdynsrv.com
0.0.0.0 ads.facebook.com
0.0.0.0 api-s2s-emea.taboola.com
0.0.0.0 appex-rf.msn.com
0.0.0.0 apps.skype.com
0.0.0.0 arc.msn.com.nsatc.net
0.0.0.0 auth.gfx.ms
0.0.0.0 az361816.vo.msecnd.net
0.0.0.0 az512334.vo.msecnd.net
0.0.0.0 az725175.vo.msecdn.net
0.0.0.0 bingforbusiness.com
0.0.0.0 blob.weather.microsoft.com
0.0.0.0 c-0001.dc-msedge.net
0.0.0.0 candycrushsoda.king.com
0.0.0.0 cdn.content.prod.cms.msn.com
0.0.0.0 cdn.onenote.net
0.0.0.0 checkappexec.microsoft.com
0.0.0.0 choice.microsoft.com
0.0.0.0 choice.microsoft.com.nsatc.net
0.0.0.0 client-office365-tas.msedge.net
0.0.0.0 client-s.gateway.messenger.live.com
0.0.0.0 clientconfig.passport.net
0.0.0.0 co2.sls.microsoft.com
0.0.0.0 config.edge.skype.com
0.0.0.0 crl.microsoft.com
0.0.0.0 dc.applicationinsights.microsoft.com
0.0.0.0 dc.services.visualstudio.com
0.0.0.0 device.auth.xboxlive.com
0.0.0.0 dmd.metaservices.microsoft.com
0.0.0.0 dmd.metaservices.microsoft.com.akadns.net
0.0.0.0 dns.msftncsi.com
0.0.0.0 evoke-windowsservices-tas.msedge.net
0.0.0.0 feedback.microsoft-hohm.com
0.0.0.0 feedback.search.microsoft.com
0.0.0.0 feedback.windows.com
0.0.0.0 finance.services.appex.bing.com
0.0.0.0 foodanddrink.tile.appex.bing.com
0.0.0.0 fr-fr.appex-rf.msn.com
0.0.0.0 fs.microsoft.com
0.0.0.0 g.bing.com
0.0.0.0 g.live.com
0.0.0.0 global.sam.msn.com
0.0.0.0 i1.services.social.microsoft.com
0.0.0.0 iecvlist.microsoft.com
0.0.0.0 img-prod-cms-rt-microsoft-com.akamaized.net
0.0.0.0 img-s-msn-com.akamaized.net
0.0.0.0 img.stb.s-msn.com
0.0.0.0 insiderservice.microsoft.com
0.0.0.0 ipv4.login.live.com
0.0.0.0 licensing.mp.microsoft.com
0.0.0.0 login.live.com
0.0.0.0 login.msa.akadns6.net
0.0.0.0 m.hotmail.com
0.0.0.0 maps.windows.com
0.0.0.0 mediaredirect.microsoft.com
0.0.0.0 msftncsi.com
0.0.0.0 next-services.apps.microsoft.com
0.0.0.0 ocos-office365-s2s.msedge.net
0.0.0.0 officeclient.microsoft.com
0.0.0.0 oneclient.sfx.ms
0.0.0.0 otf.msn.com
0.0.0.0 outlook.office365.com
0.0.0.0 pti.store.microsoft.com
0.0.0.0 query.prod.cms.rt.microsoft.com
0.0.0.0 r20swj13mr.microsoft.com
0.0.0.0 register.cdpcs.microsoft.com
0.0.0.0 ris.api.iris.microsoft.com
0.0.0.0 s.gateway.messenger.live.com
0.0.0.0 s0.2mdn.net
0.0.0.0 s2s.config.skype.com
0.0.0.0 search.msn.com
0.0.0.0 service.weather.microsoft.com
0.0.0.0 settings-ssl.xboxlive.com
0.0.0.0 share.microsoft.com
0.0.0.0 static.2mdn.net
0.0.0.0 storage.live.com
0.0.0.0 store-images.microsoft.com
0.0.0.0 store-images.s-microsoft.com
0.0.0.0 storecatalogrevocation.storequality.microsoft.com
0.0.0.0 storeedgefd.dsx.mp.microsoft.com
0.0.0.0 support.microsoft.com
0.0.0.0 t.urs.microsoft.com
0.0.0.0 tile-service.weather.microsoft.com
0.0.0.0 time.windows.com
0.0.0.0 tk2.plt.msn.com
0.0.0.0 uhf.microsoft.com
0.0.0.0 ui.skype.com
0.0.0.0 urs.microsoft.com
0.0.0.0 validation-v2.sls.microsoft.com
0.0.0.0 validation.sls.microsoft.com
0.0.0.0 version.hybrid.api.here.com
0.0.0.0 wallet.microsoft.com
0.0.0.0 wdcp.microsoft.com
0.0.0.0 wdcpalt.microsoft.com
0.0.0.0 win10-trt.msedge.net
0.0.0.0 wscont.apps.microsoft.com
0.0.0.0 wscont.apps.microsoft.com.edgesuite.net
0.0.0.0 wscont1.apps.microsoft.com
0.0.0.0 wscont2.apps.microsoft.com
0.0.0.0 www.msftconnecttest.com
0.0.0.0 www.msftncsi.com
0.0.0.0 www.windowssearch.com
0.0.0.0 xml.login.live.com
# Common
0.0.0.0 112.2o7.net
0.0.0.0 a.ads1.msads.net
0.0.0.0 a.ads1.msn.com
0.0.0.0 a.ads2.msads.net
0.0.0.0 a.ads2.msn.com
0.0.0.0 a.rad.msn.com
0.0.0.0 aa.agkn.com
0.0.0.0 ac3.msn.com
0.0.0.0 activity.windows.com
0.0.0.0 adl.windows.com
0.0.0.0 adnexus.net
0.0.0.0 adnxs.com
0.0.0.0 ads.msn.com
0.0.0.0 ads1.msads.net
0.0.0.0 ads1.msn.com
0.0.0.0 aidps.atdmt.com
0.0.0.0 aka-cdn-ns.adtech.de
0.0.0.0 alpha.telemetry.microsoft.com
0.0.0.0 analytics.msn.com
0.0.0.0 apac1.notify.windows.com.akadns.net
0.0.0.0 asimov-win.settings.data.microsoft.com.akadns.net
0.0.0.0 auto.search.msn.com
0.0.0.0 b.ads1.msn.com
0.0.0.0 b.ads2.msads.net
0.0.0.0 b.rad.msn.com
0.0.0.0 bingads.microsoft.com
0.0.0.0 bl3301-a.1drv.com
0.0.0.0 bl3301-c.1drv.com
0.0.0.0 bl3301-g.1drv.com
0.0.0.0 bn2b-cor001.api.p001.1drv.com
0.0.0.0 bn2b-cor002.api.p001.1drv.com
0.0.0.0 bn2b-cor003.api.p001.1drv.com
0.0.0.0 bn2b-cor004.api.p001.1drv.com
0.0.0.0 bn2wns1.wns.windows.com
0.0.0.0 bn3p-cor001.api.p001.1drv.com
0.0.0.0 bn3sch020010558.wns.windows.com
0.0.0.0 bn3sch020010560.wns.windows.com
0.0.0.0 bn3sch020010618.wns.windows.com
0.0.0.0 bn3sch020010629.wns.windows.com
0.0.0.0 bn3sch020010631.wns.windows.com
0.0.0.0 bn3sch020010635.wns.windows.com
0.0.0.0 bn3sch020010636.wns.windows.com
0.0.0.0 bn3sch020010650.wns.windows.com
0.0.0.0 bn3sch020011727.wns.windows.com
0.0.0.0 bn3sch020012850.wns.windows.com
0.0.0.0 bn3sch020020322.wns.windows.com
0.0.0.0 bn3sch020020749.wns.windows.com
0.0.0.0 bn3sch020022328.wns.windows.com
0.0.0.0 bn3sch020022335.wns.windows.com
0.0.0.0 bn3sch020022361.wns.windows.com
0.0.0.0 bn4sch101120814.wns.windows.com
0.0.0.0 bn4sch101120818.wns.windows.com
0.0.0.0 bn4sch101120911.wns.windows.com
0.0.0.0 bn4sch101120913.wns.windows.com
0.0.0.0 bn4sch101121019.wns.windows.com
0.0.0.0 bn4sch101121109.wns.windows.com
0.0.0.0 bn4sch101121118.wns.windows.com
0.0.0.0 bn4sch101121223.wns.windows.com
0.0.0.0 bn4sch101121407.wns.windows.com
0.0.0.0 bn4sch101121618.wns.windows.com
0.0.0.0 bn4sch101121704.wns.windows.com
0.0.0.0 bn4sch101121709.wns.windows.com
0.0.0.0 bn4sch101121714.wns.windows.com
0.0.0.0 bn4sch101121908.wns.windows.com
0.0.0.0 bn4sch101122117.wns.windows.com
0.0.0.0 bn4sch101122310.wns.windows.com
0.0.0.0 bn4sch101122312.wns.windows.com
0.0.0.0 bn4sch101122421.wns.windows.com
0.0.0.0 bn4sch101123108.wns.windows.com
0.0.0.0 bn4sch101123110.wns.windows.com
0.0.0.0 bn4sch101123202.wns.windows.com
0.0.0.0 bn4sch102110124.wns.windows.com
0.0.0.0 bs.serving-sys.com
0.0.0.0 by3301-a.1drv.com
0.0.0.0 by3301-c.1drv.com
0.0.0.0 by3301-e.1drv.com
0.0.0.0 c.atdmt.com
0.0.0.0 c.msn.com
0.0.0.0 cache.datamart.windows.com
0.0.0.0 cdn.atdmt.com
0.0.0.0 cds10.stn.llnw.net
0.0.0.0 cds1203.lon.llnw.net
0.0.0.0 cds1204.lon.llnw.net
0.0.0.0 cds1209.lon.llnw.net
0.0.0.0 cds1219.lon.llnw.net
0.0.0.0 cds1228.lon.llnw.net
0.0.0.0 cds1244.lon.llnw.net
0.0.0.0 cds1257.lon.llnw.net
0.0.0.0 cds1265.lon.llnw.net
0.0.0.0 cds1269.lon.llnw.net
0.0.0.0 cds1273.lon.llnw.net
0.0.0.0 cds1285.lon.llnw.net
0.0.0.0 cds1287.lon.llnw.net
0.0.0.0 cds1289.lon.llnw.net
0.0.0.0 cds1293.lon.llnw.net
0.0.0.0 cds1307.lon.llnw.net
0.0.0.0 cds1310.lon.llnw.net
0.0.0.0 cds1325.lon.llnw.net
0.0.0.0 cds1327.lon.llnw.net
0.0.0.0 cds177.dus.llnw.net
0.0.0.0 cds20005.stn.llnw.net
0.0.0.0 cds20404.lcy.llnw.net
0.0.0.0 cds20411.lcy.llnw.net
0.0.0.0 cds20415.lcy.llnw.net
0.0.0.0 cds20416.lcy.llnw.net
0.0.0.0 cds20417.lcy.llnw.net
0.0.0.0 cds20424.lcy.llnw.net
0.0.0.0 cds20425.lcy.llnw.net
0.0.0.0 cds20431.lcy.llnw.net
0.0.0.0 cds20435.lcy.llnw.net
0.0.0.0 cds20440.lcy.llnw.net
0.0.0.0 cds20443.lcy.llnw.net
0.0.0.0 cds20445.lcy.llnw.net
0.0.0.0 cds20450.lcy.llnw.net
0.0.0.0 cds20452.lcy.llnw.net
0.0.0.0 cds20457.lcy.llnw.net
0.0.0.0 cds20461.lcy.llnw.net
0.0.0.0 cds20469.lcy.llnw.net
0.0.0.0 cds20475.lcy.llnw.net
0.0.0.0 cds20482.lcy.llnw.net
0.0.0.0 cds20485.lcy.llnw.net
0.0.0.0 cds20495.lcy.llnw.net
0.0.0.0 cds21205.lon.llnw.net
0.0.0.0 cds21207.lon.llnw.net
0.0.0.0 cds21225.lon.llnw.net
0.0.0.0 cds21229.lon.llnw.net
0.0.0.0 cds21233.lon.llnw.net
0.0.0.0 cds21238.lon.llnw.net
0.0.0.0 cds21244.lon.llnw.net
0.0.0.0 cds21249.lon.llnw.net
0.0.0.0 cds21256.lon.llnw.net
0.0.0.0 cds21257.lon.llnw.net
0.0.0.0 cds21258.lon.llnw.net
0.0.0.0 cds21261.lon.llnw.net
0.0.0.0 cds21267.lon.llnw.net
0.0.0.0 cds21278.lon.llnw.net
0.0.0.0 cds21281.lon.llnw.net
0.0.0.0 cds21293.lon.llnw.net
0.0.0.0 cds21309.lon.llnw.net
0.0.0.0 cds21313.lon.llnw.net
0.0.0.0 cds21321.lon.llnw.net
0.0.0.0 cds299.lcy.llnw.net
0.0.0.0 cds30027.stn.llnw.net
0.0.0.0 cds308.lcy.llnw.net
0.0.0.0 cds310.lcy.llnw.net
0.0.0.0 cds38.ory.llnw.net
0.0.0.0 cds405.lcy.llnw.net
0.0.0.0 cds406.lcy.llnw.net
0.0.0.0 cds407.fra.llnw.net
0.0.0.0 cds416.lcy.llnw.net
0.0.0.0 cds421.lcy.llnw.net
0.0.0.0 cds422.lcy.llnw.net
0.0.0.0 cds425.lcy.llnw.net
0.0.0.0 cds426.lcy.llnw.net
0.0.0.0 cds447.lcy.llnw.net
0.0.0.0 cds458.lcy.llnw.net
0.0.0.0 cds459.lcy.llnw.net
0.0.0.0 cds461.lcy.llnw.net
0.0.0.0 cds468.lcy.llnw.net
0.0.0.0 cds469.lcy.llnw.net
0.0.0.0 cds471.lcy.llnw.net
0.0.0.0 cds483.lcy.llnw.net
0.0.0.0 cds484.lcy.llnw.net
0.0.0.0 cds489.lcy.llnw.net
0.0.0.0 cds493.lcy.llnw.net
0.0.0.0 cds494.lcy.llnw.net
0.0.0.0 cds54.ory.llnw.net
0.0.0.0 cds812.lon.llnw.net
0.0.0.0 cds815.lon.llnw.net
0.0.0.0 cds818.lon.llnw.net
0.0.0.0 cds832.lon.llnw.net
0.0.0.0 cds836.lon.llnw.net
0.0.0.0 cds840.lon.llnw.net
0.0.0.0 cds843.lon.llnw.net
0.0.0.0 cds857.lon.llnw.net
0.0.0.0 cds868.lon.llnw.net
0.0.0.0 cds869.lon.llnw.net
0.0.0.0 ch1-cor001.api.p001.1drv.com
0.0.0.0 ch1-cor002.api.p001.1drv.com
0.0.0.0 ch3301-c.1drv.com
0.0.0.0 ch3301-e.1drv.com
0.0.0.0 ch3301-g.1drv.com
0.0.0.0 ch3302-c.1drv.com
0.0.0.0 ch3302-e.1drv.com
0.0.0.0 compatexchange1.trafficmanager.net
0.0.0.0 continuum.dds.microsoft.com
0.0.0.0 corp.sts.microsoft.com
0.0.0.0 corpext.msitadfs.glbdns2.microsoft.com
0.0.0.0 cs1.wpc.v0cdn.net
0.0.0.0 cy2.settings.data.microsoft.com.akadns.net
0.0.0.0 cy2.vortex.data.microsoft.com.akadns.net
0.0.0.0 db5-eap.settings-win.data.microsoft.com.akadns.net
0.0.0.0 db5.settings-win.data.microsoft.com.akadns.net
0.0.0.0 db5.settings.data.microsoft.com.akadns.net
0.0.0.0 db5.vortex.data.microsoft.com.akadns.net
0.0.0.0 dev.virtualearth.net
0.0.0.0 df.telemetry.microsoft.com
0.0.0.0 diagnostics.support.microsoft.com
0.0.0.0 ec.atdmt.com
0.0.0.0 ecn.dev.virtualearth.net
0.0.0.0 eu.vortex-win.data.microsoft.com
0.0.0.0 eu.vortex.data.microsoft.com
0.0.0.0 flex.msn.com
0.0.0.0 g.msn.com
0.0.0.0 geo.settings-win.data.microsoft.com.akadns.net
0.0.0.0 geo.settings.data.microsoft.com.akadns.net
0.0.0.0 geo.vortex.data.microsoft.com.akadns.net
0.0.0.0 h1.msn.com
0.0.0.0 h2.msn.com
0.0.0.0 hk2.wns.windows.com
0.0.0.0 hk2sch130020721.wns.windows.com
0.0.0.0 hk2sch130020723.wns.windows.com
0.0.0.0 hk2sch130020726.wns.windows.com
0.0.0.0 hk2sch130020729.wns.windows.com
0.0.0.0 hk2sch130020732.wns.windows.com
0.0.0.0 hk2sch130020824.wns.windows.com
0.0.0.0 hk2sch130020843.wns.windows.com
0.0.0.0 hk2sch130020851.wns.windows.com
0.0.0.0 hk2sch130020854.wns.windows.com
0.0.0.0 hk2sch130020855.wns.windows.com
0.0.0.0 hk2sch130020924.wns.windows.com
0.0.0.0 hk2sch130020936.wns.windows.com
0.0.0.0 hk2sch130020940.wns.windows.com
0.0.0.0 hk2sch130020956.wns.windows.com
0.0.0.0 hk2sch130020958.wns.windows.com
0.0.0.0 hk2sch130020961.wns.windows.com
0.0.0.0 hk2sch130021017.wns.windows.com
0.0.0.0 hk2sch130021029.wns.windows.com
0.0.0.0 hk2sch130021035.wns.windows.com
0.0.0.0 hk2sch130021137.wns.windows.com
0.0.0.0 hk2sch130021142.wns.windows.com
0.0.0.0 hk2sch130021153.wns.windows.com
0.0.0.0 hk2sch130021217.wns.windows.com
0.0.0.0 hk2sch130021246.wns.windows.com
0.0.0.0 hk2sch130021249.wns.windows.com
0.0.0.0 hk2sch130021260.wns.windows.com
0.0.0.0 hk2sch130021264.wns.windows.com
0.0.0.0 hk2sch130021322.wns.windows.com
0.0.0.0 hk2sch130021323.wns.windows.com
0.0.0.0 hk2sch130021329.wns.windows.com
0.0.0.0 hk2sch130021334.wns.windows.com
0.0.0.0 hk2sch130021360.wns.windows.com
0.0.0.0 hk2sch130021432.wns.windows.com
0.0.0.0 hk2sch130021433.wns.windows.com
0.0.0.0 hk2sch130021435.wns.windows.com
0.0.0.0 hk2sch130021437.wns.windows.com
0.0.0.0 hk2sch130021440.wns.windows.com
0.0.0.0 hk2sch130021450.wns.windows.com
0.0.0.0 hk2sch130021518.wns.windows.com
0.0.0.0 hk2sch130021523.wns.windows.com
0.0.0.0 hk2sch130021526.wns.windows.com
0.0.0.0 hk2sch130021527.wns.windows.com
0.0.0.0 hk2sch130021544.wns.windows.com
0.0.0.0 hk2sch130021554.wns.windows.com
0.0.0.0 hk2sch130021618.wns.windows.com
0.0.0.0 hk2sch130021634.wns.windows.com
0.0.0.0 hk2sch130021638.wns.windows.com
0.0.0.0 hk2sch130021646.wns.windows.com
0.0.0.0 hk2sch130021652.wns.windows.com
0.0.0.0 hk2sch130021654.wns.windows.com
0.0.0.0 hk2sch130021657.wns.windows.com
0.0.0.0 hk2sch130021723.wns.windows.com
0.0.0.0 hk2sch130021726.wns.windows.com
0.0.0.0 hk2sch130021727.wns.windows.com
0.0.0.0 hk2sch130021730.wns.windows.com
0.0.0.0 hk2sch130021731.wns.windows.com
0.0.0.0 hk2sch130021754.wns.windows.com
0.0.0.0 hk2sch130021829.wns.windows.com
0.0.0.0 hk2sch130021830.wns.windows.com
0.0.0.0 hk2sch130021833.wns.windows.com
0.0.0.0 hk2sch130021840.wns.windows.com
0.0.0.0 hk2sch130021842.wns.windows.com
0.0.0.0 hk2sch130021851.wns.windows.com
0.0.0.0 hk2sch130021852.wns.windows.com
0.0.0.0 hk2sch130021927.wns.windows.com
0.0.0.0 hk2sch130021928.wns.windows.com
0.0.0.0 hk2sch130021929.wns.windows.com
0.0.0.0 hk2sch130021958.wns.windows.com
0.0.0.0 hk2sch130022035.wns.windows.com
0.0.0.0 hk2sch130022041.wns.windows.com
0.0.0.0 hk2sch130022049.wns.windows.com
0.0.0.0 hk2sch130022135.wns.windows.com
0.0.0.0 hk2wns1.wns.windows.com
0.0.0.0 hk2wns1b.wns.windows.com
0.0.0.0 i-bl6p-cor001.api.p001.1drv.com
0.0.0.0 i-bl6p-cor002.api.p001.1drv.com
0.0.0.0 i-bn3p-cor001.api.p001.1drv.com
0.0.0.0 i-by3p-cor001.api.p001.1drv.com
0.0.0.0 i-by3p-cor002.api.p001.1drv.com
0.0.0.0 i-ch1-cor001.api.p001.1drv.com
0.0.0.0 i-ch1-cor002.api.p001.1drv.com
0.0.0.0 i-sn2-cor001.api.p001.1drv.com
0.0.0.0 i-sn2-cor002.api.p001.1drv.com
0.0.0.0 i-sn3p-cor001.api.p001.1drv.com
0.0.0.0 inference.location.live.net
0.0.0.0 lb1.www.ms.akadns.net
0.0.0.0 live.rads.msn.com
0.0.0.0 location-inference-westus.cloudapp.net
0.0.0.0 m.adnxs.com
0.0.0.0 mobile.pipe.aria.microsoft.com
0.0.0.0 modern.watson.data.microsoft.com.akadns.net
0.0.0.0 msedge.net
0.0.0.0 msntest.serving-sys.com
0.0.0.0 nexus.officeapps.live.com
0.0.0.0 nexusrules.officeapps.live.com
0.0.0.0 oca.telemetry.microsoft.com
0.0.0.0 onecollector.cloudapp.aria.akadns.net
0.0.0.0 pre.footprintpredict.com
0.0.0.0 preview.msn.com
0.0.0.0 rad.live.com
0.0.0.0 rad.msn.com
0.0.0.0 redir.metaservices.microsoft.com
0.0.0.0 reports.wes.df.telemetry.microsoft.com
0.0.0.0 schemas.microsoft.akadns.net
0.0.0.0 secure.adnxs.com
0.0.0.0 secure.flashtalking.com
0.0.0.0 services.wes.df.telemetry.microsoft.com
0.0.0.0 settings-sandbox.data.microsoft.com
0.0.0.0 settings-win-ppe.data.microsoft.com
0.0.0.0 settings-win.data.microsoft.com
0.0.0.0 settings.data.glbdns2.microsoft.com
0.0.0.0 settings.data.microsoft.com
0.0.0.0 sg2p.wns.windows.com
0.0.0.0 sn3301-c.1drv.com
0.0.0.0 sn3301-e.1drv.com
0.0.0.0 sn3301-g.1drv.com
0.0.0.0 spynet2.microsoft.com
0.0.0.0 spynetalt.microsoft.com
0.0.0.0 spyneteurope.microsoft.akadns.net
0.0.0.0 sqm.alpha.telemetry.microsoft.com
0.0.0.0 sqm.df.telemetry.microsoft.com
0.0.0.0 sqm.telemetry.microsoft.com
0.0.0.0 sqm.telemetry.microsoft.com.nsatc.net
0.0.0.0 sqm7.alpha.telemetry.microsoft.com
0.0.0.0 ssw.live.com
0.0.0.0 survey.watson.microsoft.com
0.0.0.0 t0.ssl.ak.dynamic.tiles.virtualearth.net
0.0.0.0 t0.ssl.ak.tiles.virtualearth.net
0.0.0.0 tele.trafficmanager.net
0.0.0.0 telecommand.telemetry.microsoft.com
0.0.0.0 telemetry.appex.bing.net
0.0.0.0 telemetry.microsoft.com
0.0.0.0 telemetry.urs.microsoft.com
0.0.0.0 test.activity.windows.com
0.0.0.0 us.vortex-win.data.microsoft.com
0.0.0.0 v10-win.vortex.data.microsoft.com.akadns.net
0.0.0.0 v10.events.data.microsoft.com
0.0.0.0 v10.vortex-win.data.microsoft.com
0.0.0.0 v20.events.data.microsoft.com
0.0.0.0 v20.vortex-win.data.microsoft.com
0.0.0.0 view.atdmt.com
0.0.0.0 vortex-sandbox.data.microsoft.com
0.0.0.0 vortex-win-sandbox.data.microsoft.com
0.0.0.0 vortex-win.data.microsoft.com
0.0.0.0 vortex.data.glbdns2.microsoft.com
0.0.0.0 vortex.data.microsoft.com
0.0.0.0 watson.live.com
0.0.0.0 watson.microsoft.com
0.0.0.0 watson.ppe.telemetry.microsoft.com
0.0.0.0 watson.telemetry.microsoft.com
0.0.0.0 web.vortex.data.microsoft.com
0.0.0.0 wes.df.telemetry.microsoft.com
0.0.0.0 www.msedge.net
# Windows Update
0.0.0.0 00001b-1.l.windowsupdate.com
0.0.0.0 000043-1.l.windowsupdate.com
0.0.0.0 000061-1.l.windowsupdate.com
0.0.0.0 0000a3-1.l.windowsupdate.com
0.0.0.0 0000f2-1.l.windowsupdate.com
0.0.0.0 0000f9-1.l.windowsupdate.com
0.0.0.0 0000fe-1.l.windowsupdate.com
0.0.0.0 00015e-1.l.windowsupdate.com
0.0.0.0 0001a5-1.l.windowsupdate.com
0.0.0.0 0001bc-1.l.windowsupdate.com
0.0.0.0 0001d4-1.l.windowsupdate.com
0.0.0.0 0001ed-1.l.windowsupdate.com
0.0.0.0 000202-1.l.windowsupdate.com
0.0.0.0 000238-1.l.windowsupdate.com
0.0.0.0 000263-1.l.windowsupdate.com
0.0.0.0 00028e-1.l.windowsupdate.com
0.0.0.0 00028f-1.l.windowsupdate.com
0.0.0.0 0002ae-1.l.windowsupdate.com
0.0.0.0 0002c3-1.l.windowsupdate.com
0.0.0.0 0002fd-1.l.windowsupdate.com
0.0.0.0 000371-1.l.windowsupdate.com
0.0.0.0 000396-1.l.windowsupdate.com
0.0.0.0 0003fc-1.l.windowsupdate.com
0.0.0.0 000410-1.l.windowsupdate.com
0.0.0.0 000418-1.l.windowsupdate.com
0.0.0.0 000452-1.l.windowsupdate.com
0.0.0.0 000464-1.l.windowsupdate.com
0.0.0.0 000498-1.l.windowsupdate.com
0.0.0.0 0004ad-1.l.windowsupdate.com
0.0.0.0 0004ee-1.l.windowsupdate.com
0.0.0.0 0004f1-1.l.windowsupdate.com
0.0.0.0 000502-1.l.windowsupdate.com
0.0.0.0 00054d-1.l.windowsupdate.com
0.0.0.0 000589-1.l.windowsupdate.com
0.0.0.0 000646-1.l.windowsupdate.com
0.0.0.0 0006df-1.l.windowsupdate.com
0.0.0.0 0007be-1.l.windowsupdate.com
0.0.0.0 0007e4-1.l.windowsupdate.com
0.0.0.0 00081a-1.l.windowsupdate.com
0.0.0.0 0008f7-1.l.windowsupdate.com
0.0.0.0 000968-1.l.windowsupdate.com
0.0.0.0 000989-1.l.windowsupdate.com
0.0.0.0 0009a5-1.l.windowsupdate.com
0.0.0.0 0009b8-1.l.windowsupdate.com
0.0.0.0 0009fe-1.l.windowsupdate.com
0.0.0.0 000a55-1.l.windowsupdate.com
0.0.0.0 000a56-1.l.windowsupdate.com
0.0.0.0 000a60-1.l.windowsupdate.com
0.0.0.0 000afa-1.l.windowsupdate.com
0.0.0.0 000b25-1.l.windowsupdate.com
0.0.0.0 000b3d-1.l.windowsupdate.com
0.0.0.0 000b62-1.l.windowsupdate.com
0.0.0.0 000b78-1.l.windowsupdate.com
0.0.0.0 000bc0-1.l.windowsupdate.com
0.0.0.0 000bcf-1.l.windowsupdate.com
0.0.0.0 000bdf-1.l.windowsupdate.com
0.0.0.0 000be0-1.l.windowsupdate.com
0.0.0.0 000c0c-1.l.windowsupdate.com
0.0.0.0 000c19-1.l.windowsupdate.com
0.0.0.0 000c27-1.l.windowsupdate.com
0.0.0.0 000c33-1.l.windowsupdate.com
0.0.0.0 000cb0-1.l.windowsupdate.com
0.0.0.0 000cca-1.l.windowsupdate.com
0.0.0.0 000d29-1.l.windowsupdate.com
0.0.0.0 000d40-1.l.windowsupdate.com
0.0.0.0 000d6d-1.l.windowsupdate.com
0.0.0.0 000e78-1.l.windowsupdate.com
0.0.0.0 000efd-1.l.windowsupdate.com
0.0.0.0 000f40-1.l.windowsupdate.com
0.0.0.0 001007-1.l.windowsupdate.com
0.0.0.0 001056-1.l.windowsupdate.com
0.0.0.0 001089-1.l.windowsupdate.com
0.0.0.0 0010bb-1.l.windowsupdate.com
0.0.0.0 0010da-1.l.windowsupdate.com
0.0.0.0 0010e3-1.l.windowsupdate.com
0.0.0.0 00111c-1.l.windowsupdate.com
0.0.0.0 001173-1.l.windowsupdate.com
0.0.0.0 0011da-1.l.windowsupdate.com
0.0.0.0 0011f3-1.l.windowsupdate.com
0.0.0.0 001233-1.l.windowsupdate.com
0.0.0.0 00123a-1.l.windowsupdate.com
0.0.0.0 001390-1.l.windowsupdate.com
0.0.0.0 001402-1.l.windowsupdate.com
0.0.0.0 00149f-1.l.windowsupdate.com
0.0.0.0 0016c3-1.l.windowsupdate.com
0.0.0.0 0017b1-1.l.windowsupdate.com
0.0.0.0 0017c5-1.l.windowsupdate.com
0.0.0.0 0017f1-1.l.windowsupdate.com
0.0.0.0 00184b-1.l.windowsupdate.com
0.0.0.0 00185d-1.l.windowsupdate.com
0.0.0.0 001891-1.l.windowsupdate.com
0.0.0.0 0018c4-1.l.windowsupdate.com
0.0.0.0 001949-1.l.windowsupdate.com
0.0.0.0 00196e-1.l.windowsupdate.com
0.0.0.0 00198e-1.l.windowsupdate.com
0.0.0.0 0019a2-1.l.windowsupdate.com
0.0.0.0 0019d8-1.l.windowsupdate.com
0.0.0.0 001a1f-1.l.windowsupdate.com
0.0.0.0 001a27-1.l.windowsupdate.com
0.0.0.0 001a32-1.l.windowsupdate.com
0.0.0.0 001a43-1.l.windowsupdate.com
0.0.0.0 001a83-1.l.windowsupdate.com
0.0.0.0 001a92-1.l.windowsupdate.com
0.0.0.0 001bb5-1.l.windowsupdate.com
0.0.0.0 001c02-1.l.windowsupdate.com
0.0.0.0 001cdc-1.l.windowsupdate.com
0.0.0.0 001d09-1.l.windowsupdate.com
0.0.0.0 001d1f-1.l.windowsupdate.com
0.0.0.0 001d49-1.l.windowsupdate.com
0.0.0.0 001d7a-1.l.windowsupdate.com
0.0.0.0 001dc2-1.l.windowsupdate.com
0.0.0.0 001e03-1.l.windowsupdate.com
0.0.0.0 001e05-1.l.windowsupdate.com
0.0.0.0 001e0c-1.l.windowsupdate.com
0.0.0.0 001e0f-1.l.windowsupdate.com
0.0.0.0 001e27-1.l.windowsupdate.com
0.0.0.0 001e4b-1.l.windowsupdate.com
0.0.0.0 001e8d-1.l.windowsupdate.com
0.0.0.0 001e9c-1.l.windowsupdate.com
0.0.0.0 001ec3-1.l.windowsupdate.com
0.0.0.0 001f23-1.l.windowsupdate.com
0.0.0.0 001f4f-1.l.windowsupdate.com
0.0.0.0 001f7f-1.l.windowsupdate.com
0.0.0.0 001fbb-1.l.windowsupdate.com
0.0.0.0 002012-1.l.windowsupdate.com
0.0.0.0 002062-1.l.windowsupdate.com
0.0.0.0 0020a7-1.l.windowsupdate.com
0.0.0.0 002108-1.l.windowsupdate.com
0.0.0.0 00210c-1.l.windowsupdate.com
0.0.0.0 00210e-1.l.windowsupdate.com
0.0.0.0 002182-1.l.windowsupdate.com
0.0.0.0 0021a0-1.l.windowsupdate.com
0.0.0.0 0021d0-1.l.windowsupdate.com
0.0.0.0 0021ff-1.l.windowsupdate.com
0.0.0.0 00227f-1.l.windowsupdate.com
0.0.0.0 0022a7-1.l.windowsupdate.com
0.0.0.0 0022c1-1.l.windowsupdate.com
0.0.0.0 0022db-1.l.windowsupdate.com
0.0.0.0 0022e6-1.l.windowsupdate.com
0.0.0.0 0022eb-1.l.windowsupdate.com
0.0.0.0 00235c-1.l.windowsupdate.com
0.0.0.0 002384-1.l.windowsupdate.com
0.0.0.0 00238e-1.l.windowsupdate.com
0.0.0.0 002394-1.l.windowsupdate.com
0.0.0.0 0023c5-1.l.windowsupdate.com
0.0.0.0 0023df-1.l.windowsupdate.com
0.0.0.0 00249b-1.l.windowsupdate.com
0.0.0.0 002518-1.l.windowsupdate.com
0.0.0.0 002557-1.l.windowsupdate.com
0.0.0.0 002562-1.l.windowsupdate.com
0.0.0.0 0025be-1.l.windowsupdate.com
0.0.0.0 0025ea-1.l.windowsupdate.com
0.0.0.0 0025f2-1.l.windowsupdate.com
0.0.0.0 00268c-1.l.windowsupdate.com
0.0.0.0 0026a1-1.l.windowsupdate.com
0.0.0.0 0026bc-1.l.windowsupdate.com
0.0.0.0 array101-prod.do.dsp.mp.microsoft.com
0.0.0.0 array102-prod.do.dsp.mp.microsoft.com
0.0.0.0 array103-prod.do.dsp.mp.microsoft.com
0.0.0.0 array104-prod.do.dsp.mp.microsoft.com
0.0.0.0 array201-prod.do.dsp.mp.microsoft.com
0.0.0.0 array202-prod.do.dsp.mp.microsoft.com
0.0.0.0 array203-prod.do.dsp.mp.microsoft.com
0.0.0.0 array204-prod.do.dsp.mp.microsoft.com
0.0.0.0 array401-prod.do.dsp.mp.microsoft.com
0.0.0.0 array402-prod.do.dsp.mp.microsoft.com
0.0.0.0 array403-prod.do.dsp.mp.microsoft.com
0.0.0.0 array404-prod.do.dsp.mp.microsoft.com
0.0.0.0 array405-prod.do.dsp.mp.microsoft.com
0.0.0.0 array406-prod.do.dsp.mp.microsoft.com
0.0.0.0 array407-prod.do.dsp.mp.microsoft.com
0.0.0.0 array408-prod.do.dsp.mp.microsoft.com
0.0.0.0 array503-prod.do.dsp.mp.microsoft.com?
0.0.0.0 au.download.windowsupdate.com
0.0.0.0 au.v4.download.windowsupdate.com
0.0.0.0 az764295.vo.msecnd.net
0.0.0.0 bg.v4.a.dl.ws.microsoft.com
0.0.0.0 bg.v4.emdl.ws.microsoft.com
0.0.0.0 bg1.v4.a.dl.ws.microsoft.com
0.0.0.0 bg1.v4.emdl.ws.microsoft.com
0.0.0.0 bg2.v4.a.dl.ws.microsoft.com
0.0.0.0 bg2.v4.emdl.ws.microsoft.com
0.0.0.0 bg3.v4.a.dl.ws.microsoft.com
0.0.0.0 bg3.v4.emdl.ws.microsoft.com
0.0.0.0 bg4.v4.a.dl.ws.microsoft.com
0.0.0.0 bg4.v4.emdl.ws.microsoft.com
0.0.0.0 bg5.v4.a.dl.ws.microsoft.com
0.0.0.0 bg5.v4.emdl.ws.microsoft.com
0.0.0.0 bl2p.wns.notify.windows.com.akadns.net
0.0.0.0 bl2p.wns.windows.com
0.0.0.0 blob.sn4prdstr03a.store.core.windows.net
0.0.0.0 client.wns.windows.com
0.0.0.0 ctldl.windowsupdate.com
0.0.0.0 db3wns2011111.wns.windows.com
0.0.0.0 db5-dspcdn.tlu.dl.delivery.mp.microsoft.com
0.0.0.0 db5.wns.windows.com
0.0.0.0 db5p.wns.notify.windows.com.akadns.net
0.0.0.0 db5p.wns.windows.com
0.0.0.0 db5sch101100122.wns.windows.com
0.0.0.0 db5sch101100127.wns.windows.com
0.0.0.0 db5sch101100831.wns.windows.com
0.0.0.0 db5sch101100835.wns.windows.com
0.0.0.0 db5sch101100917.wns.windows.com
0.0.0.0 db5sch101100925.wns.windows.com
0.0.0.0 db5sch101100928.wns.windows.com
0.0.0.0 db5sch101100938.wns.windows.com
0.0.0.0 db5sch101101001.wns.windows.com
0.0.0.0 db5sch101101022.wns.windows.com
0.0.0.0 db5sch101101024.wns.windows.com
0.0.0.0 db5sch101101031.wns.windows.com
0.0.0.0 db5sch101101034.wns.windows.com
0.0.0.0 db5sch101101042.wns.windows.com
0.0.0.0 db5sch101101044.wns.windows.com
0.0.0.0 db5sch101101122.wns.windows.com
0.0.0.0 db5sch101101123.wns.windows.com
0.0.0.0 db5sch101101125.wns.windows.com
0.0.0.0 db5sch101101128.wns.windows.com
0.0.0.0 db5sch101101129.wns.windows.com
0.0.0.0 db5sch101101133.wns.windows.com
0.0.0.0 db5sch101101145.wns.windows.com
0.0.0.0 db5sch101101209.wns.windows.com
0.0.0.0 db5sch101101221.wns.windows.com
0.0.0.0 db5sch101101228.wns.windows.com
0.0.0.0 db5sch101101231.wns.windows.com
0.0.0.0 db5sch101101237.wns.windows.com
0.0.0.0 db5sch101101317.wns.windows.com
0.0.0.0 db5sch101101324.wns.windows.com
0.0.0.0 db5sch101101329.wns.windows.com
0.0.0.0 db5sch101101333.wns.windows.com
0.0.0.0 db5sch101101334.wns.windows.com
0.0.0.0 db5sch101101338.wns.windows.com
0.0.0.0 db5sch101101419.wns.windows.com
0.0.0.0 db5sch101101424.wns.windows.com
0.0.0.0 db5sch101101426.wns.windows.com
0.0.0.0 db5sch101101427.wns.windows.com
0.0.0.0 db5sch101101430.wns.windows.com
0.0.0.0 db5sch101101445.wns.windows.com
0.0.0.0 db5sch101101511.wns.windows.com
0.0.0.0 db5sch101101519.wns.windows.com
0.0.0.0 db5sch101101529.wns.windows.com
0.0.0.0 db5sch101101535.wns.windows.com
0.0.0.0 db5sch101101541.wns.windows.com
0.0.0.0 db5sch101101543.wns.windows.com
0.0.0.0 db5sch101101608.wns.windows.com
0.0.0.0 db5sch101101618.wns.windows.com
0.0.0.0 db5sch101101629.wns.windows.com
0.0.0.0 db5sch101101631.wns.windows.com
0.0.0.0 db5sch101101633.wns.windows.com
0.0.0.0 db5sch101101640.wns.windows.com
0.0.0.0 db5sch101101711.wns.windows.com
0.0.0.0 db5sch101101722.wns.windows.com
0.0.0.0 db5sch101101739.wns.windows.com
0.0.0.0 db5sch101101745.wns.windows.com
0.0.0.0 db5sch101101813.wns.windows.com
0.0.0.0 db5sch101101820.wns.windows.com
0.0.0.0 db5sch101101826.wns.windows.com
0.0.0.0 db5sch101101828.wns.windows.com
0.0.0.0 db5sch101101835.wns.windows.com
0.0.0.0 db5sch101101837.wns.windows.com
0.0.0.0 db5sch101101844.wns.windows.com
0.0.0.0 db5sch101101902.wns.windows.com
0.0.0.0 db5sch101101907.wns.windows.com
0.0.0.0 db5sch101101910.wns.windows.com
0.0.0.0 db5sch101101914.wns.windows.com
0.0.0.0 db5sch101101929.wns.windows.com
0.0.0.0 db5sch101101939.wns.windows.com
0.0.0.0 db5sch101101941.wns.windows.com
0.0.0.0 db5sch101102015.wns.windows.com
0.0.0.0 db5sch101102017.wns.windows.com
0.0.0.0 db5sch101102019.wns.windows.com
0.0.0.0 db5sch101102023.wns.windows.com
0.0.0.0 db5sch101102025.wns.windows.com
0.0.0.0 db5sch101102032.wns.windows.com
0.0.0.0 db5sch101102033.wns.windows.com
0.0.0.0 db5sch101110108.wns.windows.com
0.0.0.0 db5sch101110109.wns.windows.com
0.0.0.0 db5sch101110114.wns.windows.com
0.0.0.0 db5sch101110135.wns.windows.com
0.0.0.0 db5sch101110142.wns.windows.com
0.0.0.0 db5sch101110204.wns.windows.com
0.0.0.0 db5sch101110206.wns.windows.com
0.0.0.0 db5sch101110214.wns.windows.com
0.0.0.0 db5sch101110225.wns.windows.com
0.0.0.0 db5sch101110232.wns.windows.com
0.0.0.0 db5sch101110245.wns.windows.com
0.0.0.0 db5sch101110315.wns.windows.com
0.0.0.0 db5sch101110323.wns.windows.com
0.0.0.0 db5sch101110325.wns.windows.com
0.0.0.0 db5sch101110328.wns.windows.com
0.0.0.0 db5sch101110331.wns.windows.com
0.0.0.0 db5sch101110341.wns.windows.com
0.0.0.0 db5sch101110343.wns.windows.com
0.0.0.0 db5sch101110345.wns.windows.com
0.0.0.0 db5sch101110403.wns.windows.com
0.0.0.0 db5sch101110408.wns.windows.com
0.0.0.0 db5sch101110419.wns.windows.com
0.0.0.0 db5sch101110428.wns.windows.com
0.0.0.0 db5sch101110435.wns.windows.com
0.0.0.0 db5sch101110438.wns.windows.com
0.0.0.0 db5sch101110442.wns.windows.com
0.0.0.0 db5sch101110501.wns.windows.com
0.0.0.0 db5sch101110510.wns.windows.com
0.0.0.0 db5sch101110518.wns.windows.com
0.0.0.0 db5sch101110527.wns.windows.com
0.0.0.0 db5sch101110533.wns.windows.com
0.0.0.0 db5sch101110618.wns.windows.com
0.0.0.0 db5sch101110621.wns.windows.com
0.0.0.0 db5sch101110622.wns.windows.com
0.0.0.0 db5sch101110624.wns.windows.com
0.0.0.0 db5sch101110626.wns.windows.com
0.0.0.0 db5sch101110634.wns.windows.com
0.0.0.0 db5sch101110705.wns.windows.com
0.0.0.0 db5sch101110713.wns.windows.com
0.0.0.0 db5sch101110724.wns.windows.com
0.0.0.0 db5sch101110729.wns.windows.com
0.0.0.0 db5sch101110740.wns.windows.com
0.0.0.0 db5sch101110810.wns.windows.com
0.0.0.0 db5sch101110816.wns.windows.com
0.0.0.0 db5sch101110821.wns.windows.com
0.0.0.0 db5sch101110822.wns.windows.com
0.0.0.0 db5sch101110825.wns.windows.com
0.0.0.0 db5sch101110828.wns.windows.com
0.0.0.0 db5sch101110829.wns.windows.com
0.0.0.0 db5sch101110831.wns.windows.com
0.0.0.0 db5sch101110835.wns.windows.com
0.0.0.0 db5sch101110919.wns.windows.com
0.0.0.0 db5sch101110921.wns.windows.com
0.0.0.0 db5sch101110923.wns.windows.com
0.0.0.0 db5sch101110929.wns.windows.com
0.0.0.0 db5sch103081814.wns.windows.com
0.0.0.0 db5sch103081913.wns.windows.com
0.0.0.0 db5sch103082011.wns.windows.com
0.0.0.0 db5sch103082111.wns.windows.com
0.0.0.0 db5sch103082308.wns.windows.com
0.0.0.0 db5sch103082406.wns.windows.com
0.0.0.0 db5sch103082409.wns.windows.com
0.0.0.0 db5sch103082609.wns.windows.com
0.0.0.0 db5sch103082611.wns.windows.com
0.0.0.0 db5sch103082709.wns.windows.com
0.0.0.0 db5sch103082712.wns.windows.com
0.0.0.0 db5sch103082806.wns.windows.com
0.0.0.0 db5sch103090115.wns.windows.com
0.0.0.0 db5sch103090210.wns.windows.com
0.0.0.0 db5sch103090414.wns.windows.com
0.0.0.0 db5sch103090415.wns.windows.com
0.0.0.0 db5sch103090513.wns.windows.com
0.0.0.0 db5sch103090515.wns.windows.com
0.0.0.0 db5sch103090608.wns.windows.com
0.0.0.0 db5sch103090806.wns.windows.com
0.0.0.0 db5sch103090814.wns.windows.com
0.0.0.0 db5sch103090906.wns.windows.com
0.0.0.0 db5sch103091011.wns.windows.com
0.0.0.0 db5sch103091012.wns.windows.com
0.0.0.0 db5sch103091106.wns.windows.com
0.0.0.0 db5sch103091108.wns.windows.com
0.0.0.0 db5sch103091212.wns.windows.com
0.0.0.0 db5sch103091311.wns.windows.com
0.0.0.0 db5sch103091313.wns.windows.com
0.0.0.0 db5sch103091414.wns.windows.com
0.0.0.0 db5sch103091511.wns.windows.com
0.0.0.0 db5sch103091609.wns.windows.com
0.0.0.0 db5sch103091617.wns.windows.com
0.0.0.0 db5sch103091715.wns.windows.com
0.0.0.0 db5sch103091817.wns.windows.com
0.0.0.0 db5sch103091908.wns.windows.com
0.0.0.0 db5sch103091911.wns.windows.com
0.0.0.0 db5sch103092010.wns.windows.com
0.0.0.0 db5sch103092108.wns.windows.com
0.0.0.0 db5sch103092109.wns.windows.com
0.0.0.0 db5sch103092209.wns.windows.com
0.0.0.0 db5sch103092210.wns.windows.com
0.0.0.0 db5sch103092509.wns.windows.com
0.0.0.0 db5sch103100117.wns.windows.com
0.0.0.0 db5sch103100121.wns.windows.com
0.0.0.0 db5sch103100221.wns.windows.com
0.0.0.0 db5sch103100313.wns.windows.com
0.0.0.0 db5sch103100314.wns.windows.com
0.0.0.0 db5sch103100412.wns.windows.com
0.0.0.0 db5sch103100510.wns.windows.com
0.0.0.0 db5sch103100511.wns.windows.com
0.0.0.0 db5sch103100611.wns.windows.com
0.0.0.0 db5sch103100712.wns.windows.com
0.0.0.0 db5sch103101105.wns.windows.com
0.0.0.0 db5sch103101208.wns.windows.com
0.0.0.0 db5sch103101212.wns.windows.com
0.0.0.0 db5sch103101314.wns.windows.com
0.0.0.0 db5sch103101411.wns.windows.com
0.0.0.0 db5sch103101413.wns.windows.com
0.0.0.0 db5sch103101513.wns.windows.com
0.0.0.0 db5sch103101610.wns.windows.com
0.0.0.0 db5sch103101611.wns.windows.com
0.0.0.0 db5sch103101705.wns.windows.com
0.0.0.0 db5sch103101711.wns.windows.com
0.0.0.0 db5sch103101813.wns.windows.com
0.0.0.0 db5sch103101909.wns.windows.com
0.0.0.0 db5sch103101914.wns.windows.com
0.0.0.0 db5sch103102009.wns.windows.com
0.0.0.0 db5sch103102112.wns.windows.com
0.0.0.0 db5sch103102203.wns.windows.com
0.0.0.0 db5sch103102209.wns.windows.com
0.0.0.0 db5sch103102310.wns.windows.com
0.0.0.0 db5sch103102404.wns.windows.com
0.0.0.0 db5sch103102410.wns.windows.com
0.0.0.0 db5sch103102516.wns.windows.com
0.0.0.0 db5sch103102609.wns.windows.com
0.0.0.0 db5sch103102610.wns.windows.com
0.0.0.0 db5sch103102710.wns.windows.com
0.0.0.0 db5sch103102711.wns.windows.com
0.0.0.0 db5sch103102805.wns.windows.com
0.0.0.0 db5wns1d.wns.windows.com
0.0.0.0 db6sch102090104.wns.windows.com
0.0.0.0 db6sch102090109.wns.windows.com
0.0.0.0 db6sch102090112.wns.windows.com
0.0.0.0 db6sch102090116.wns.windows.com
0.0.0.0 db6sch102090122.wns.windows.com
0.0.0.0 db6sch102090203.wns.windows.com
0.0.0.0 db6sch102090206.wns.windows.com
0.0.0.0 db6sch102090208.wns.windows.com
0.0.0.0 db6sch102090209.wns.windows.com
0.0.0.0 db6sch102090210.wns.windows.com
0.0.0.0 db6sch102090211.wns.windows.com
0.0.0.0 db6sch102090212.wns.windows.com
0.0.0.0 db6sch102090305.wns.windows.com
0.0.0.0 db6sch102090306.wns.windows.com
0.0.0.0 db6sch102090308.wns.windows.com
0.0.0.0 db6sch102090311.wns.windows.com
0.0.0.0 db6sch102090313.wns.windows.com
0.0.0.0 db6sch102090410.wns.windows.com
0.0.0.0 db6sch102090412.wns.windows.com
0.0.0.0 db6sch102090504.wns.windows.com
0.0.0.0 db6sch102090510.wns.windows.com
0.0.0.0 db6sch102090512.wns.windows.com
0.0.0.0 db6sch102090513.wns.windows.com
0.0.0.0 db6sch102090514.wns.windows.com
0.0.0.0 db6sch102090519.wns.windows.com
0.0.0.0 db6sch102090613.wns.windows.com
0.0.0.0 db6sch102090619.wns.windows.com
0.0.0.0 db6sch102090810.wns.windows.com
0.0.0.0 db6sch102090811.wns.windows.com
0.0.0.0 db6sch102090902.wns.windows.com
0.0.0.0 db6sch102090905.wns.windows.com
0.0.0.0 db6sch102090907.wns.windows.com
0.0.0.0 db6sch102090908.wns.windows.com
0.0.0.0 db6sch102090910.wns.windows.com
0.0.0.0 db6sch102090911.wns.windows.com
0.0.0.0 db6sch102091003.wns.windows.com
0.0.0.0 db6sch102091007.wns.windows.com
0.0.0.0 db6sch102091008.wns.windows.com
0.0.0.0 db6sch102091009.wns.windows.com
0.0.0.0 db6sch102091011.wns.windows.com
0.0.0.0 db6sch102091103.wns.windows.com
0.0.0.0 db6sch102091105.wns.windows.com
0.0.0.0 db6sch102091204.wns.windows.com
0.0.0.0 db6sch102091205.wns.windows.com
0.0.0.0 db6sch102091209.wns.windows.com
0.0.0.0 db6sch102091305.wns.windows.com
0.0.0.0 db6sch102091307.wns.windows.com
0.0.0.0 db6sch102091308.wns.windows.com
0.0.0.0 db6sch102091309.wns.windows.com
0.0.0.0 db6sch102091314.wns.windows.com
0.0.0.0 db6sch102091412.wns.windows.com
0.0.0.0 db6sch102091503.wns.windows.com
0.0.0.0 db6sch102091507.wns.windows.com
0.0.0.0 db6sch102091508.wns.windows.com
0.0.0.0 db6sch102091602.wns.windows.com
0.0.0.0 db6sch102091603.wns.windows.com
0.0.0.0 db6sch102091606.wns.windows.com
0.0.0.0 db6sch102091607.wns.windows.com
0.0.0.0 definitionupdates.microsoft.com
0.0.0.0 displaycatalog.mp.microsoft.com
0.0.0.0 dl.delivery.mp.microsoft.com
0.0.0.0 download.microsoft.com
0.0.0.0 download.windowsupdate.com
0.0.0.0 ds.download.windowsupdate.com
0.0.0.0 emdl.ws.microsoft.com
0.0.0.0 fe2.update.microsoft.com
0.0.0.0 fe2.update.microsoft.com.akadns.net
0.0.0.0 fe2.ws.microsoft.com
0.0.0.0 fe3.delivery.dsp.mp.microsoft.com.nsatc.net
0.0.0.0 fe3.delivery.mp.microsoft.com
0.0.0.0 fg.ds.b1.download.windowsupdate.com
0.0.0.0 fg.v4.download.windowsupdate.com
0.0.0.0 geo-prod.do.dsp.mp.microsoft.com
0.0.0.0 geover-prod.do.dsp.mp.microsoft.com
0.0.0.0 kv501-prod.do.dsp.mp.microsoft.com
0.0.0.0 sls.update.microsoft.com
0.0.0.0 spo-ring.msedge.net
0.0.0.0 statsfe1.ws.microsoft.com
0.0.0.0 statsfe2.update.microsoft.com
0.0.0.0 statsfe2.update.microsoft.com.akadns.net
0.0.0.0 statsfe2.ws.microsoft.com
0.0.0.0 tlu.dl.delivery.mp.microsoft.com
0.0.0.0 tsfe.trafficshaping.dsp.mp.microsoft.com
0.0.0.0 v4.download.windowsupdate.com
0.0.0.0 wer.alpha.telemetry.microsoft.com
0.0.0.0 weu-000.reverseproxy.onenote.com
0.0.0.0 windowsupdate.com
0.0.0.0 www.download.windowsupdate.com

# SmartScreen
0.0.0.0 telemetrysvc-by3p.smartscreen.microsoft.com
0.0.0.0 urlreputation-sn3p.smartscreen.microsoft.com
0.0.0.0 urlreputation-ch1p.smartscreen.microsoft.com
0.0.0.0 apprep.smartscreen.microsoft.com
0.0.0.0 apprepsvc-ch1p.smartscreen.microsoft.com
0.0.0.0 ars.smartscreen.microsoft.com
0.0.0.0 europe.smartscreen-prod.microsoft.com
0.0.0.0 feedbacksite-bn2b.smartscreen.microsoft.com
0.0.0.0 nav.smartscreen.microsoft.com
0.0.0.0 smartscreen-os1p.smartscreen.microsoft.com
0.0.0.0 smartscreen-sn3p.smartscreen.microsoft.com
0.0.0.0 urs.smartscreen.microsoft.com
0.0.0.0 w.apprep.smartscreen.microsoft.com
# IP
0.0.0.0 40.77.226.249
0.0.0.0 40.77.226.250
0.0.0.0 13.92.194.212
0.0.0.0 52.178.38.151
0.0.0.0 52.229.39.152
0.0.0.0 52.183.114.173
0.0.0.0 13.78.232.226
0.0.0.0 83.147.0.0
# Certificates
#40.77.226.250 aka Server Authentication Certificate: Intermediateâ€™, and â€˜Server Authentication Certificate: Root
# Time + Push (WSN)
#0.0.0.0 client.wns.windows.com
0.0.0.0 wns.notify.windows.com.akadns.net
0.0.0.0 emea1.notify.windows.com.akadns.net
# Microsoft Edge (incl. Updates)
0.0.0.0 msedge.f.tlu.dl.delivery.mp.microsoft.com
0.0.0.0 msedge.s.tlu.dl.delivery.mp.microsoft.com
# Microsoft Chromium Edge
0.0.0.0 optanon.blob.core.windows.net
#0.0.0.0 safebrowsing.googleapis.com
# Watson
0.0.0.0 watson.alpha.telemetry.microsoft.com
0.0.0.0 watson.df.telemetry.microsoft.com
0.0.0.0 watson.telemetry.microsoft.com.nsatc.net
0.0.0.0 watson2.alpha.telemetry.microsoft.com
0.0.0.0 watson7.alpha.telemetry.microsoft.com
# WPAD 
# ASN: AS24940  - Hetzner Online GmbH
#      AS200130 - Digital Ocean
0.0.0.0 138.68.83.69
0.0.0.0 144.76.184.43
0.0.0.0 wpad.be
0.0.0.0 wpad.blog
0.0.0.0 wpad.cam
0.0.0.0 wpad.cat
0.0.0.0 wpad.cc
0.0.0.0 wpad.center
0.0.0.0 wpad.co
0.0.0.0 wpad.com.ar
0.0.0.0 wpad.com.co
0.0.0.0 wpad.com.es
0.0.0.0 wpad.com.tw
0.0.0.0 wpad.com.ua
0.0.0.0 wpad.computer
0.0.0.0 wpad.cz
0.0.0.0 wpad.direct
0.0.0.0 wpad.domains
0.0.0.0 wpad.ee
0.0.0.0 wpad.engineer
0.0.0.0 wpad.es
0.0.0.0 wpad.eu.org
0.0.0.0 wpad.exchange
0.0.0.0 wpad.exposed
0.0.0.0 wpad.gr
0.0.0.0 wpad.group
0.0.0.0 wpad.hr
0.0.0.0 wpad.im
0.0.0.0 wpad.info
0.0.0.0 wpad.it
0.0.0.0 wpad.kiev.ua
0.0.0.0 wpad.live
0.0.0.0 wpad.ltd
0.0.0.0 wpad.lv
0.0.0.0 wpad.me.uk
0.0.0.0 wpad.msk.ru
0.0.0.0 wpad.name
0.0.0.0 wpad.net.ar
0.0.0.0 wpad.net.br
0.0.0.0 wpad.net.cn
0.0.0.0 wpad.network
0.0.0.0 wpad.nom.es
0.0.0.0 wpad.online
0.0.0.0 wpad.org.cn
0.0.0.0 wpad.org.es
0.0.0.0 wpad.pl
0.0.0.0 wpad.plus
0.0.0.0 wpad.pro
0.0.0.0 wpad.run
0.0.0.0 wpad.site
0.0.0.0 wpad.sk
0.0.0.0 wpad.ski
0.0.0.0 wpad.software
0.0.0.0 wpad.space
0.0.0.0 wpad.systems
0.0.0.0 wpad.team
0.0.0.0 wpad.trade
0.0.0.0 wpad.tv
0.0.0.0 wpad.tw
0.0.0.0 wpad.vip
0.0.0.0 wpad.ws
0.0.0.0 wpad.xxx
0.0.0.0 wpad.zone
0.0.0.0 wpadblocking.com